1;aze1;default.png;69
2;aze2;default.png;70
3;aze3;default.png;71
4;aze4;default.png;72
5;aze5;default.png;73
6;aze6;default.png;74
7;aze7;default.png;75
8;aze8;default.png;76
9;aze9;default.png;77
10;aze10;default.png;78
11;aze11;default.png;79
12;aze12;default.png;80
